<?xml version="1.0" encoding="UTF-8" standalone="no"?>
<svg
   xmlns:dc="http://purl.org/dc/elements/1.1/"
   xmlns:cc="http://creativecommons.org/ns#"
   xmlns:rdf="http://www.w3.org/1999/02/22-rdf-syntax-ns#"
   xmlns:svg="http://www.w3.org/2000/svg"
   xmlns="http://www.w3.org/2000/svg"
   xmlns:sodipodi="http://sodipodi.sourceforge.net/DTD/sodipodi-0.dtd"
   xmlns:inkscape="http://www.inkscape.org/namespaces/inkscape"
   sodipodi:docname="path.svg"
   inkscape:version="1.0 (4035a4fb49, 2020-05-01)"
   id="svg1636"
   version="1.1"
   viewBox="0 0 161.77382 13.985085"
   height="13.985085mm"
   width="161.77382mm">
  <defs
     id="defs1630">
    <clipPath
       clipPathUnits="userSpaceOnUse"
       id="clipPath1034">
      <path
         style="display:none;fill:none;stroke:#000000;stroke-width:0.264583px;stroke-linecap:butt;stroke-linejoin:miter;stroke-opacity:1"
         d="m 30.616073,-316.66834 c 0,0 46.113094,10.9613 72.193447,11.33928 26.08036,0.37798 107.34524,-9.44941 107.34524,-9.44941 l 9.44941,-52.53868 -205.619051,14.74107 z"
         id="path1036"
         sodipodi:nodetypes="cscccc" />
      <path
         id="lpe_path-effect1038"
         style="fill:none;stroke:#000000;stroke-width:0.264583px;stroke-linecap:butt;stroke-linejoin:miter;stroke-opacity:1"
         class="powerclip"
         d="M 25.616072,-321.74405 H 197.38989 v 23.98509 H 25.616072 Z m 5.000001,5.07571 c 0,0 46.113094,10.9613 72.193447,11.33928 26.08036,0.37798 107.34524,-9.44941 107.34524,-9.44941 l 9.44941,-52.53868 -205.619051,14.74107 z" />
    </clipPath>
    <inkscape:path-effect
       effect="powerclip"
       id="path-effect1038"
       is_visible="true"
       lpeversion="1"
       inverse="true"
       flatten="false"
       hide_clip="false"
       message="Use fill-rule evenodd on &lt;b&gt;fill and stroke&lt;/b&gt; dialog if no flatten result after convert clip to paths." />
  </defs>
  <sodipodi:namedview
     inkscape:window-maximized="1"
     inkscape:window-y="-8"
     inkscape:window-x="-8"
     inkscape:window-height="715"
     inkscape:window-width="1366"
     showgrid="false"
     inkscape:document-rotation="0"
     inkscape:current-layer="layer1"
     inkscape:document-units="mm"
     inkscape:cy="147.22435"
     inkscape:cx="347.63555"
     inkscape:zoom="0.49497475"
     inkscape:pageshadow="2"
     inkscape:pageopacity="0.0"
     borderopacity="1.0"
     bordercolor="#666666"
     pagecolor="#ffffff"
     id="base" />
  <metadata
     id="metadata1633">
    <rdf:RDF>
      <cc:Work
         rdf:about="">
        <dc:format>image/svg+xml</dc:format>
        <dc:type
           rdf:resource="http://purl.org/dc/dcmitype/StillImage" />
        <dc:title></dc:title>
      </cc:Work>
    </rdf:RDF>
  </metadata>
  <g
     transform="translate(-21.166662,-97.328891)"
     id="layer1"
     inkscape:groupmode="layer"
     inkscape:label="Layer 1">
    <path
       d="M 30.994048,-316.74405 H 192.01191 c 0.2094,0 0.37798,0.16858 0.37798,0.37798 v 13.22913 c 0,0.2094 -0.16858,0.37798 -0.37798,0.37798 H 30.994048 c -0.209399,0 -0.377976,-0.16858 -0.377976,-0.37798 v -13.22913 c 0,-0.2094 0.168577,-0.37798 0.377976,-0.37798 z"
       style="opacity:0.997;fill:#708367;fill-opacity:1;stroke:none;stroke-width:1"
       id="rect1022"
       width="161.77382"
       height="13.985085"
       x="30.616072"
       y="-316.74405"
       sodipodi:type="rect"
       clip-path="url(#clipPath1034)"
       inkscape:path-effect="#path-effect1038"
       transform="translate(-9.4494099,414.07294)"
       ry="0.37797618" />
  </g>
</svg>
