<?xml version="1.0" encoding="UTF-8" standalone="no"?>
<svg
   xmlns:dc="http://purl.org/dc/elements/1.1/"
   xmlns:cc="http://creativecommons.org/ns#"
   xmlns:rdf="http://www.w3.org/1999/02/22-rdf-syntax-ns#"
   xmlns:svg="http://www.w3.org/2000/svg"
   xmlns="http://www.w3.org/2000/svg"
   xmlns:sodipodi="http://sodipodi.sourceforge.net/DTD/sodipodi-0.dtd"
   xmlns:inkscape="http://www.inkscape.org/namespaces/inkscape"
   sodipodi:docname="cuci.svg"
   inkscape:version="1.0 (4035a4fb49, 2020-05-01)"
   inkscape:export-ydpi="200"
   inkscape:export-xdpi="200"
   inkscape:export-filename="C:\projects\gold5\src\assets\img\selly\cuci.png"
   id="svg2268"
   version="1.1"
   viewBox="0 0 47.601578 47.601574"
   height="47.601574mm"
   width="47.601578mm">
  <defs
     id="defs2262" />
  <sodipodi:namedview
     inkscape:window-maximized="0"
     inkscape:window-y="0"
     inkscape:window-x="76"
     inkscape:window-height="729"
     inkscape:window-width="1274"
     showgrid="false"
     inkscape:document-rotation="0"
     inkscape:current-layer="layer1"
     inkscape:document-units="mm"
     inkscape:cy="145.32185"
     inkscape:cx="116.31356"
     inkscape:zoom="1.4"
     inkscape:pageshadow="2"
     inkscape:pageopacity="0.0"
     borderopacity="1.0"
     bordercolor="#666666"
     pagecolor="#ffffff"
     id="base" />
  <metadata
     id="metadata2265">
    <rdf:RDF>
      <cc:Work
         rdf:about="">
        <dc:format>image/svg+xml</dc:format>
        <dc:type
           rdf:resource="http://purl.org/dc/dcmitype/StillImage" />
        <dc:title></dc:title>
      </cc:Work>
    </rdf:RDF>
  </metadata>
  <g
     transform="translate(-26.092068,-88.783554)"
     id="layer1"
     inkscape:groupmode="layer"
     inkscape:label="Layer 1">
    <path
       style="fill:#d9ebeb;fill-opacity:1;fill-rule:nonzero;stroke:none;stroke-width:0.352777"
       d="m 73.340868,112.58365 c 0,12.95081 -10.497902,23.4487 -23.447332,23.4487 -12.9508,0 -23.44869,-10.49789 -23.44869,-23.4487 0,-12.949423 10.49789,-23.447318 23.44869,-23.447318 12.94943,0 23.447332,10.497895 23.447332,23.447318"
       id="path1079" />
    <path
       style="fill:#ffffff;fill-opacity:1;fill-rule:nonzero;stroke:none;stroke-width:0.352777"
       d="m 38.169196,118.77242 c 0,0 1.2926,-0.1502 1.45934,-1.21543 0.1695,-1.06522 2.84427,-3.26595 2.84427,-3.26595 0,0 1.35324,-0.7028 2.26963,-2.18281 0.9164,-1.47864 1.56821,-2.12907 1.56821,-2.12907 0,0 1.68258,1.00321 1.65502,2.12907 -0.0262,1.12723 -1.98024,3.73311 -2.95727,6.01238 l 7.54476,-0.0799 3.02755,-2.46669 1.777669,0.20395 -0.733118,1.96371 c 0,0 2.06017,0.70417 1.73495,1.6812 -0.32521,0.97703 -0.175011,0.6463 -0.175011,0.6463 0,0 4.408342,1.30776 6.362411,2.61001 1.954049,1.30362 0.265949,2.65272 0.265949,2.65272 0,0 -0.591169,0.60496 -1.893419,-0.0468 0,0 0.363799,1.18097 -0.144691,1.89342 -0.507118,0.71245 -2.13596,0.38585 -2.13596,0.38585 0,0 0.712441,0.45613 0.0317,1.531 -0.68213,1.07487 -2.88286,0.20946 -2.88286,0.20946 0,0 1.023879,0.71521 0.147449,1.76665 -0.877808,1.05282 -2.444638,0.23702 -2.444638,0.23702 l -3.997691,-2.10977 c 0,0 -0.0813,0.17363 -2.14285,0.24667 -2.06292,0.073 -6.94807,0.073 -6.94807,0.073 l -2.93108,-1.30225 -7.20439,-0.16812 c 0,0 -3.21358,-3.48368 -5.00641,-9.3114 z m 0,0"
       id="path1081" />
    <path
       style="fill:#47b3b0;fill-opacity:1;fill-rule:nonzero;stroke:none;stroke-width:0.352777"
       d="m 58.265126,103.58506 v 6.15295 c 0,0 2.36333,-0.47267 3.35139,1.21818 0.98943,1.68947 0.326591,3.2563 0.326591,3.2563 0,0 2.1966,0.7593 2.237931,2.98484 0.0414,2.22552 -3.610452,3.59667 -3.610452,3.59667 l -2.210379,-1.37115 c 0,0 0.282498,-0.89296 -0.835091,-1.2609 -1.118971,-0.36656 -1.0101,-0.47542 -0.73863,-1.07211 0.271481,-0.59807 0.817179,-1.48415 -0.59531,-1.52962 -1.412491,-0.0455 -3.36655,2.56039 -3.36655,2.56039 l -0.92328,-0.10887 c 0,0 -0.55673,-1.78593 0.50849,-2.7919 1.065231,-1.00735 2.133211,-1.0983 1.762511,-2.51768 -0.37207,-1.42075 -0.37207,-1.74597 -0.37207,-1.74597 0,0 -3.256301,1.65364 -3.906741,2.29168 -0.65181,0.63941 -3.51812,4.90857 -3.51812,4.90857 l -1.36702,-0.0358 c 0,0 0.98943,-2.27238 1.63435,-3.25354 0.64493,-0.97979 1.35048,-1.60542 1.32292,-2.75746 0,0 1.10381,-3.32521 1.84106,-3.70554 0.73725,-0.37896 2.0395,-1.03078 3.668341,-0.0538 v -6.51261 h 4.88514 z m 0,0"
       id="path1083" />
    <path
       style="fill:#47b3b0;fill-opacity:1;fill-rule:nonzero;stroke:none;stroke-width:0.352777"
       d="m 44.356586,109.16474 c 0,0.98943 -0.80202,1.79145 -1.79145,1.79145 -0.98943,0 -1.79007,-0.80202 -1.79007,-1.79145 0,-0.98943 0.80064,-1.79145 1.79007,-1.79145 0.98943,0 1.79145,0.80202 1.79145,1.79145"
       id="path1085" />
    <path
       style="fill:#47b3b0;fill-opacity:1;fill-rule:nonzero;stroke:none;stroke-width:0.352777"
       d="m 47.287676,103.79177 c 0,0.71933 -0.58291,1.30224 -1.30225,1.30224 -0.71934,0 -1.30362,-0.58291 -1.30362,-1.30224 0,-0.72071 0.58428,-1.30363 1.30362,-1.30363 0.71934,0 1.30225,0.58292 1.30225,1.30363"
       id="path1087" />
    <path
       style="fill:#ffffff;fill-opacity:1;fill-rule:nonzero;stroke:none;stroke-width:0.352777"
       d="m 45.985426,118.44583 3.90811,-5.19796 3.629759,-2.24207 c 0,0 0.733111,0.9977 0.505741,2.59071 -0.22738,1.59301 -1.78318,0.0799 -2.07257,2.836 -0.10886,1.03629 0.17225,1.61644 0.17225,1.61644 z m 0,0"
       id="path1089" />
    <path
       style="fill:#195773;fill-opacity:1;fill-rule:nonzero;stroke:none;stroke-width:0.352777"
       d="m 65.199416,94.998508 c 0,0 -8.141449,-0.651813 -10.467581,1.10932 -1.368388,1.036285 -1.485529,1.576476 -1.20854,5.444632 l -0.0482,0.28525 h 4.88514 v -1.954059 h 11.07254 c -0.977029,-2.280652 -4.23333,-4.885143 -4.23333,-4.885143"
       id="path1091" />
    <path
       style="fill:none;stroke:#171717;stroke-width:0.705556;stroke-linecap:round;stroke-linejoin:round;stroke-miterlimit:10;stroke-opacity:1"
       d="m 27.421876,118.77242 10.83964,0.15297 c 0,0 1.18512,-0.74139 1.4814,-1.63022 0.29627,-0.88884 1.03766,-1.63022 1.63021,-2.22278 0.59256,-0.59256 2.07395,-1.18511 2.81534,-2.22278 0.74138,-1.03766 2.22277,-2.81533 2.22277,-2.81533 0,0 1.77767,0.74139 1.48139,2.22278 -0.29627,1.48139 -2.51905,4.29672 -2.96278,5.92694 l 7.853442,-0.14745 c 0,0 2.519047,-2.51905 2.962777,-2.51905 0.445111,0 1.779051,0.29627 1.779051,0.29627 l -2.075328,4.44556 -5.630662,1.33256"
       id="path1093" />
    <path
       style="fill:none;stroke:#171717;stroke-width:0.705556;stroke-linecap:round;stroke-linejoin:round;stroke-miterlimit:10;stroke-opacity:1"
       d="m 56.710696,117.55699 c 0,0 1.25815,0.77584 1.55442,1.3684 0.29628,0.59255 -0.888828,3.70416 -0.888828,3.70416 l -8.446002,2.22278"
       id="path1095" />
    <path
       style="fill:none;stroke:#171717;stroke-width:0.705556;stroke-linecap:round;stroke-linejoin:round;stroke-miterlimit:10;stroke-opacity:1"
       d="m 56.654205,122.81972 c 0,0 0.276982,1.5875 -0.463029,2.32888 -0.741381,0.74139 -1.926489,1.03767 -5.48321,1.77767"
       id="path1097" />
    <path
       style="fill:none;stroke:#171717;stroke-width:0.705556;stroke-linecap:round;stroke-linejoin:round;stroke-miterlimit:10;stroke-opacity:1"
       d="m 54.544426,126.02504 c 0,0 0.01651,0.60495 -1.16858,1.64262 -1.18511,1.03766 -1.9265,1.77766 -2.66788,1.77766 h -8.29717 l -2.81533,-1.33393 -7.28844,-0.22048"
       id="path1099" />
    <path
       style="fill:none;stroke:#171717;stroke-width:0.705556;stroke-linecap:round;stroke-linejoin:round;stroke-miterlimit:10;stroke-opacity:1"
       d="m 47.448906,116.70261 c 0,0 2.37022,-3.55672 2.81533,-3.85299 0.44373,-0.29628 3.40789,-1.9265 3.40789,-1.9265 0,0 0.888831,1.63022 0.296281,2.81533 -0.592561,1.18649 -1.777671,0.59393 -2.075331,3.11161"
       id="path1101" />
    <path
       style="fill:none;stroke:#171717;stroke-width:0.705556;stroke-linecap:round;stroke-linejoin:round;stroke-miterlimit:10;stroke-opacity:1"
       d="m 58.265126,119.81422 c 0,0 5.334389,2.22277 6.22322,2.81533 0.890212,0.59256 1.185111,1.48139 0.741391,2.22278 -0.614611,1.02388 -1.481391,0.74138 -2.22278,0.4451 -0.741381,-0.29765 -5.481841,-2.52043 -5.481841,-2.52043"
       id="path1103" />
    <path
       style="fill:none;stroke:#171717;stroke-width:0.705556;stroke-linecap:round;stroke-linejoin:round;stroke-miterlimit:10;stroke-opacity:1"
       d="m 62.851236,125.23129 c 0,0 0.600829,0.95498 0.008,1.84381 -0.593942,0.88883 -2.075331,0.44373 -2.075331,0.44373 l -4.593,-2.37023"
       id="path1105" />
    <path
       style="fill:none;stroke:#171717;stroke-width:0.705556;stroke-linecap:round;stroke-linejoin:round;stroke-miterlimit:10;stroke-opacity:1"
       d="m 60.784176,127.66766 c 0,0 0.592561,0.88883 -0.44373,1.77766 -1.037658,0.89021 -2.816709,-0.29628 -2.816709,-0.29628 l -3.538802,-2.08773"
       id="path1107" />
    <path
       style="fill:none;stroke:#171717;stroke-width:0.705556;stroke-linecap:round;stroke-linejoin:round;stroke-miterlimit:10;stroke-opacity:1"
       d="m 58.070816,129.44532 c 0,0 0.49058,0.89021 -0.24942,1.77905 -0.741389,0.88883 -2.519061,0 -2.519061,0 l -3.642149,-2.12907"
       id="path1109" />
    <path
       style="fill:none;stroke:#171717;stroke-width:0.705556;stroke-linecap:round;stroke-linejoin:round;stroke-miterlimit:10;stroke-opacity:1"
       d="m 62.265565,119.81422 c 0,0 2.519061,-1.18511 1.779051,-3.55672 -0.741379,-2.37022 -2.964159,-2.37022 -3.111609,-2.37022"
       id="path1111" />
    <path
       style="fill:none;stroke:#171717;stroke-width:0.705556;stroke-linecap:round;stroke-linejoin:round;stroke-miterlimit:10;stroke-opacity:1"
       d="m 53.672126,108.55289 c 0,0 -1.10105,-1.25539 -2.81533,-0.74138 -1.48277,0.4451 -1.77905,1.77904 -1.77905,1.77904"
       id="path1113" />
    <path
       style="fill:none;stroke:#171717;stroke-width:0.705556;stroke-linecap:round;stroke-linejoin:round;stroke-miterlimit:10;stroke-opacity:1"
       d="m 61.943107,113.88728 c 0.592558,-1.63022 0.02619,-4.74183 -3.677981,-4.14928"
       id="path1115" />
    <path
       style="fill:none;stroke:#171717;stroke-width:0.705556;stroke-linecap:round;stroke-linejoin:round;stroke-miterlimit:10;stroke-opacity:1"
       d="m 40.928026,109.21986 c 0,0.9412 0.76344,1.70326 1.70464,1.70326 0.9412,0 1.70463,-0.76206 1.70463,-1.70326 0,-0.9412 -0.76343,-1.70463 -1.70463,-1.70463 -0.9412,0 -1.70464,0.76343 -1.70464,1.70463 z m 0,0"
       id="path1117" />
    <path
       style="fill:none;stroke:#171717;stroke-width:0.705556;stroke-linecap:round;stroke-linejoin:round;stroke-miterlimit:10;stroke-opacity:1"
       d="m 45.151716,102.99664 c -0.45613,0.45475 -0.45613,1.19338 0,1.64951 0.45475,0.45476 1.19338,0.45476 1.64951,0 0.45613,-0.45613 0.45613,-1.19476 0,-1.64951 -0.45613,-0.45613 -1.19476,-0.45613 -1.64951,0 z m 0,0"
       id="path1119" />
    <path
       style="fill:none;stroke:#171717;stroke-width:0.705556;stroke-linecap:round;stroke-linejoin:round;stroke-miterlimit:10;stroke-opacity:1"
       d="m 69.432747,99.810617 h -11.01879 v 1.926493 h -4.890662 v -3.260435 c 0,-2.630674 2.436371,-3.56774 8.473552,-3.614593 l 3.25493,0.0041"
       id="path1121" />
    <path
       style="fill:none;stroke:#171717;stroke-width:0.705556;stroke-linecap:round;stroke-linejoin:round;stroke-miterlimit:10;stroke-opacity:1"
       d="m 53.523295,99.439924 h 2.667881"
       id="path1123" />
    <path
       style="fill:none;stroke:#171717;stroke-width:0.705556;stroke-linecap:round;stroke-linejoin:round;stroke-miterlimit:10;stroke-opacity:1"
       d="m 53.523295,104.84872 v 3.55534"
       id="path1125" />
    <path
       style="fill:none;stroke:#171717;stroke-width:0.705556;stroke-linecap:round;stroke-linejoin:round;stroke-miterlimit:10;stroke-opacity:1"
       d="m 56.191176,105.145 v 5.03811"
       id="path1127" />
    <path
       style="fill:none;stroke:#171717;stroke-width:0.705556;stroke-linecap:round;stroke-linejoin:round;stroke-miterlimit:10;stroke-opacity:1"
       d="m 58.265126,103.06968 v 9.63248"
       id="path1129" />
    <path
       style="fill:none;stroke:#171717;stroke-width:0.705556;stroke-linecap:round;stroke-linejoin:round;stroke-miterlimit:10;stroke-opacity:1"
       d="m 56.191176,111.21939 v 0.88884"
       id="path1131" />
    <path
       style="fill:none;stroke:#171717;stroke-width:0.705556;stroke-linecap:round;stroke-linejoin:round;stroke-miterlimit:10;stroke-opacity:1"
       d="m 53.523295,103.81106 v -0.88883"
       id="path1133" />
    <path
       style="fill:none;stroke:#000000;stroke-width:0.705556;stroke-linecap:butt;stroke-linejoin:miter;stroke-miterlimit:10;stroke-opacity:1"
       d="m 73.340868,112.58365 c 0,12.95081 -10.497902,23.4487 -23.447322,23.4487 -12.9508,0 -23.4487,-10.49789 -23.4487,-23.4487 0,-12.949423 10.4979,-23.447318 23.4487,-23.447318 12.94942,0 23.447322,10.497895 23.447322,23.447318 z m 0,0"
       id="path1213" />
    <g
       style="fill:#000000;fill-opacity:1"
       id="g1227"
       transform="matrix(0.35277777,0,0,0.35277777,0.89602215,54.537925)">
      <g
         transform="matrix(0.26458333,0,0,0.26458333,114.2715,120.2295)"
         id="use1215">
        <path
           style="stroke:none"
           d="m 3.8125,-7.796875 c 0,2.984375 -3.21875,3.484375 -3.21875,6.53125 V 0 h 4.6875 v -1.484375 h -3.0625 c -0.3125,-1.8125 3.21875,-2.96875 3.21875,-6.375 0,-1.65625 -0.828125,-2.59375 -2.421875,-2.59375 -1.59375,0 -2.421875,0.9375 -2.421875,2.59375 V -6.84375 H 2.125 v -1.109375 c 0,-0.75 0.328125,-1.03125 0.84375,-1.03125 0.515625,0 0.84375,0.265625 0.84375,1.1875 z m 0,0"
           id="path2947" />
      </g>
      <g
         transform="matrix(0.26458333,0,0,0.26458333,120.12054,120.2295)"
         id="use1217">
        <path
           style="stroke:none"
           d="m 2.078125,-7.953125 c 0,-0.75 0.328125,-1.03125 0.84375,-1.03125 0.515625,0 0.84375,0.28125 0.84375,1.03125 V -2.375 c 0,0.734375 -0.328125,1.015625 -0.84375,1.015625 -0.515625,0 -0.84375,-0.28125 -0.84375,-1.015625 z m -1.625,5.46875 c 0,1.65625 0.875,2.609375 2.46875,2.609375 1.59375,0 2.46875,-0.953125 2.46875,-2.609375 v -5.375 c 0,-1.65625 -0.875,-2.59375 -2.46875,-2.59375 -1.59375,0 -2.46875,0.9375 -2.46875,2.59375 z m 0,0"
           id="path2943" />
      </g>
      <g
         transform="matrix(0.26458333,0,0,0.26458333,125.96958,120.2295)"
         id="use1219">
        <path
           style="stroke:none"
           d=""
           id="path2931" />
      </g>
      <g
         transform="matrix(0.26458333,0,0,0.26458333,128.25897,120.2295)"
         id="use1221">
        <path
           style="stroke:none"
           d="M 0.390625,-7.859375 C 0.390625,-4.90625 3.5625,-4.5 3.5625,-2.375 c 0,0.734375 -0.328125,1 -0.84375,1 -0.515625,0 -0.84375,-0.265625 -0.84375,-1 V -3.109375 H 0.34375 v 0.625 c 0,1.65625 0.828125,2.609375 2.421875,2.609375 1.59375,0 2.421875,-0.953125 2.421875,-2.609375 0,-2.953125 -3.171875,-3.34375 -3.171875,-5.46875 0,-0.75 0.28125,-1.03125 0.796875,-1.03125 0.53125,0 0.8125,0.28125 0.8125,1.03125 v 0.421875 h 1.546875 v -0.328125 c 0,-1.65625 -0.8125,-2.59375 -2.390625,-2.59375 -1.578125,0 -2.390625,0.9375 -2.390625,2.59375 z m 0,0"
           id="path2939" />
      </g>
      <g
         transform="matrix(0.26458333,0,0,0.26458333,133.78307,120.2295)"
         id="use1223">
        <path
           style="stroke:none"
           d="M 2.21875,-8.859375 H 5.015625 V -10.34375 H 0.59375 V 0 H 5.015625 V -1.484375 H 2.21875 V -4.5 H 4.4375 V -5.984375 H 2.21875 Z m 0,0"
           id="path2951" />
      </g>
      <g
         transform="matrix(0.26458333,0,0,0.26458333,139.21854,120.2295)"
         id="use1225">
        <path
           style="stroke:none"
           d="M 3.765625,-3.859375 V -2.375 c 0,0.734375 -0.328125,1 -0.84375,1 -0.515625,0 -0.84375,-0.265625 -0.84375,-1 v -5.578125 c 0,-0.75 0.328125,-1.03125 0.84375,-1.03125 0.515625,0 0.84375,0.28125 0.84375,1.03125 v 1.109375 h 1.53125 v -1.015625 c 0,-1.65625 -0.828125,-2.59375 -2.421875,-2.59375 -1.59375,0 -2.421875,0.9375 -2.421875,2.59375 v 5.375 c 0,1.65625 0.828125,2.609375 2.421875,2.609375 1.59375,0 2.421875,-0.953125 2.421875,-2.609375 v -1.375 z m 0,0"
           id="path2935" />
      </g>
    </g>
  </g>
</svg>
